Hatchery Inseason Forecasts
…
Simulate Data

series<-make_data(S,min_yr,Y,Y_resid,n,phi,theta,proc_sd)
print(series)

## # A tibble: 1,100 x 4
##    abundance  year  yday date      
##        <int> <dbl> <int> <date>    
##  1         2  2010     1 2010-01-01
##  2         0  2010     2 2010-01-02
##  3         0  2010     3 2010-01-03
##  4         2  2010     4 2010-01-04
##  5         1  2010     5 2010-01-05
##  6         8  2010     6 2010-01-06
##  7        11  2010     7 2010-01-07
##  8         4  2010     8 2010-01-08
##  9        25  2010     9 2010-01-09
## 10        20  2010    10 2010-01-10
## # ... with 1,090 more rows
…
